^C:\USERS\822\DESKTOP\PROGIII-SFML\PRG3SFML\PRG3SFML\DEBUG\CLIMA.OBJ|C:\USERS\822\DESKTOP\PROGIII-SFML\PRG3SFML\PRG3SFML\DEBUG\CREDITSSTATE.OBJ|C:\USERS\822\DESKTOP\PROGIII-SFML\PRG3SFML\PRG3SFML\DEBUG\ENEMY.OBJ|C:\USERS\822\DESKTOP\PROGIII-SFML\PRG3SFML\PRG3SFML\DEBUG\FILES.OBJ|C:\USERS\822\DESKTOP\PROGIII-SFML\PRG3SFML\PRG3SFML\DEBUG\GAME.OBJ|C:\USERS\822\DESKTOP\PROGIII-SFML\PRG3SFML\PRG3SFML\DEBUG\LIVES.OBJ|C:\USERS\822\DESKTOP\PROGIII-SFML\PRG3SFML\PRG3SFML\DEBUG\MAIN.OBJ|C:\USERS\822\DESKTOP\PROGIII-SFML\PRG3SFML\PRG3SFML\DEBUG\MENU.OBJ|C:\USERS\822\DESKTOP\PROGIII-SFML\PRG3SFML\PRG3SFML\DEBUG\MENUSTATE.OBJ|C:\USERS\822\DESKTOP\PROGIII-SFML\PRG3SFML\PRG3SFML\DEBUG\MONEDAS.OBJ|C:\USERS\822\DESKTOP\PROGIII-SFML\PRG3SFML\PRG3SFML\DEBUG\PERSONAJE.OBJ|C:\USERS\822\DESKTOP\PROGIII-SFML\PRG3SFML\PRG3SFML\DEBUG\PLAYSTATE.OBJ
C:\WINDOWS\GLOBALIZATION\SORTING\SORTDEFAULT.NLS
C:\USERS\822\DESKTOP\PROGIII-SFML\PRG3SFML\SFML-2.4.2\LIB\SFML-GRAPHICS-D.LIB
C:\USERS\822\DESKTOP\PROGIII-SFML\PRG3SFML\SFML-2.4.2\LIB\SFML-WINDOW-D.LIB
C:\USERS\822\DESKTOP\PROGIII-SFML\PRG3SFML\SFML-2.4.2\LIB\SFML-SYSTEM-D.LIB
C:\USERS\822\DESKTOP\PROGIII-SFML\PRG3SFML\SFML-2.4.2\LIB\SFML-AUDIO-D.LIB
C:\USERS\822\DESKTOP\PROGIII-SFML\PRG3SFML\SFML-2.4.2\LIB\SFML-NETWORK-D.LIB
C:\USERS\822\DESKTOP\PROGIII-SFML\PRG3SFML\VLD\LIB\WIN32\VLD.LIB
C:\PROGRAM FILES (X86)\WINDOWS KITS\8.1\LIB\WINV6.3\UM\X86\KERNEL32.LIB
C:\PROGRAM FILES (X86)\WINDOWS KITS\8.1\LIB\WINV6.3\UM\X86\USER32.LIB
C:\PROGRAM FILES (X86)\WINDOWS KITS\8.1\LIB\WINV6.3\UM\X86\GDI32.LIB
C:\PROGRAM FILES (X86)\WINDOWS KITS\8.1\LIB\WINV6.3\UM\X86\WINSPOOL.LIB
C:\PROGRAM FILES (X86)\WINDOWS KITS\8.1\LIB\WINV6.3\UM\X86\COMDLG32.LIB
C:\PROGRAM FILES (X86)\WINDOWS KITS\8.1\LIB\WINV6.3\UM\X86\ADVAPI32.LIB
C:\PROGRAM FILES (X86)\WINDOWS KITS\8.1\LIB\WINV6.3\UM\X86\SHELL32.LIB
C:\PROGRAM FILES (X86)\WINDOWS KITS\8.1\LIB\WINV6.3\UM\X86\OLE32.LIB
C:\PROGRAM FILES (X86)\WINDOWS KITS\8.1\LIB\WINV6.3\UM\X86\OLEAUT32.LIB
C:\PROGRAM FILES (X86)\WINDOWS KITS\8.1\LIB\WINV6.3\UM\X86\UUID.LIB
C:\PROGRAM FILES (X86)\WINDOWS KITS\8.1\LIB\WINV6.3\UM\X86\ODBC32.LIB
C:\PROGRAM FILES (X86)\WINDOWS KITS\8.1\LIB\WINV6.3\UM\X86\ODBCCP32.LIB
C:\USERS\822\DESKTOP\PROGIII-SFML\PRG3SFML\PRG3SFML\DEBUG\CLIMA.OBJ
C:\USERS\822\DESKTOP\PROGIII-SFML\PRG3SFML\PRG3SFML\DEBUG\CREDITSSTATE.OBJ
C:\USERS\822\DESKTOP\PROGIII-SFML\PRG3SFML\PRG3SFML\DEBUG\ENEMY.OBJ
C:\USERS\822\DESKTOP\PROGIII-SFML\PRG3SFML\PRG3SFML\DEBUG\FILES.OBJ
C:\USERS\822\DESKTOP\PROGIII-SFML\PRG3SFML\PRG3SFML\DEBUG\GAME.OBJ
C:\USERS\822\DESKTOP\PROGIII-SFML\PRG3SFML\PRG3SFML\DEBUG\LIVES.OBJ
C:\USERS\822\DESKTOP\PROGIII-SFML\PRG3SFML\PRG3SFML\DEBUG\MAIN.OBJ
C:\USERS\822\DESKTOP\PROGIII-SFML\PRG3SFML\PRG3SFML\DEBUG\MENU.OBJ
C:\USERS\822\DESKTOP\PROGIII-SFML\PRG3SFML\PRG3SFML\DEBUG\MENUSTATE.OBJ
C:\USERS\822\DESKTOP\PROGIII-SFML\PRG3SFML\PRG3SFML\DEBUG\MONEDAS.OBJ
C:\USERS\822\DESKTOP\PROGIII-SFML\PRG3SFML\PRG3SFML\DEBUG\PERSONAJE.OBJ
C:\USERS\822\DESKTOP\PROGIII-SFML\PRG3SFML\PRG3SFML\DEBUG\PLAYSTATE.OBJ
C:\WINDOWS\SYSTEM32\TZRES.DLL
C:\PROGRAM FILES (X86)\MICROSOFT VISUAL STUDIO 14.0\VC\LIB\MSVCPRTD.LIB
C:\PROGRAM FILES (X86)\MICROSOFT VISUAL STUDIO 14.0\VC\LIB\MSVCRTD.LIB
C:\PROGRAM FILES (X86)\MICROSOFT VISUAL STUDIO 14.0\VC\LIB\OLDNAMES.LIB
C:\PROGRAM FILES (X86)\MICROSOFT VISUAL STUDIO 14.0\VC\LIB\VCRUNTIMED.LIB
C:\PROGRAM FILES (X86)\WINDOWS KITS\10\LIB\10.0.10240.0\UCRT\X86\UCRTD.LIB
